<svg version="1.1" id="Capa_1" xmlns="http://www.w3.org/2000/svg" xmlns:xlink="http://www.w3.org/1999/xlink" x="0px" y="0px"
	 viewBox="0 0 38 50" style="enable-background:new 0 0 38 50;" xml:space="preserve">

<g>
	<path fill="#FE806A" d="M11.6,26.4c-0.3-0.3-0.9-0.3-1.2,0c-0.3,0.3-0.3,0.9,0,1.2l1,1c0.3,0.3,0.8,0.5,1.2,0.5c0.5,0,0.9-0.2,1.2-0.5
		l2.7-2.7c0.3-0.3,0.3-0.9,0-1.2c-0.3-0.3-0.9-0.3-1.2,0l-2.7,2.7l0.1,0.1l-0.1-0.1L11.6,26.4z"/>
	<path fill="#FE806A" d="M15.3,14.7l-2.7,2.7l0.1,0.1l-0.1-0.1l-1-1c-0.3-0.3-0.9-0.3-1.2,0c-0.2,0.2-0.2,0.4-0.2,0.6s0.1,0.4,0.2,0.6
		l1,1c0.3,0.3,0.8,0.5,1.2,0.5c0.5,0,0.9-0.2,1.2-0.5l2.7-2.7c0.3-0.3,0.3-0.9,0-1.2C16.2,14.4,15.7,14.4,15.3,14.7z"/>
	<path fill="#212122" d="M34.2,1.5h-3.3c-0.5,0-0.8,0.4-0.8,0.8s0.4,0.8,0.8,0.8h3.3c1.1,0,2.1,0.9,2.1,2.1v41c0,1.1-0.9,2.1-2.1,2.1
		H3.7c-1.1,0-2.1-0.9-2.1-2.1v-41c0-1.1,0.9-2.1,2.1-2.1h5.4v1.2H4.2C3.5,4.4,2.9,5,2.9,5.7v30c0,0.5,0.4,0.8,0.8,0.8
		s0.8-0.4,0.8-0.8V6.1h3.2C7.7,6.3,7.7,6.5,7.7,6.7v2c0,1.3,1,2.3,2.3,2.3h18c1.3,0,2.3-1,2.3-2.3v-2c0-0.2,0-0.4-0.1-0.6h3.2v31.7
		h-3.7c-2.1,0-3.7,1.7-3.7,3.7v3.7H4.6v-6.6c0-0.5-0.4-0.8-0.8-0.8s-0.8,0.4-0.8,0.8v6.9c0,0.7,0.6,1.3,1.3,1.3h22.6c0,0,0,0,0,0
		c0.2,0,0.4-0.1,0.6-0.2l7.4-7.4c0.1-0.1,0.2-0.3,0.2-0.5c0,0,0-32.7,0-33c0-0.7-0.6-1.3-1.3-1.3h-4.9V2.5c0-1.4-1.1-2.5-2.5-2.5
		H11.6c-1,0-1.9,0.6-2.3,1.5H3.7C1.7,1.5,0,3.2,0,5.2v41C0,48.3,1.7,50,3.7,50h30.5c2.1,0,3.7-1.7,3.7-3.7v-41
		C38,3.2,36.3,1.5,34.2,1.5z M27.2,5.2c0,0.4-0.4,0.8-0.8,0.8H11.6c-0.4,0-0.8-0.4-0.8-0.8V2.5c0-0.4,0.4-0.8,0.8-0.8h14.7
		c0.4,0,0.8,0.4,0.8,0.8V5.2z M28.6,8.7c0,0.3-0.3,0.6-0.6,0.6H10c-0.3,0-0.6-0.3-0.6-0.6v-2c0-0.1,0-0.2,0.1-0.3
		c0.4,0.8,1.3,1.3,2.2,1.3h14.7c0.9,0,1.7-0.5,2.2-1.3c0.1,0.1,0.1,0.2,0.1,0.3V8.7z M32.2,39.5L27.7,44v-2.5c0-1.1,0.9-2.1,2.1-2.1
		H32.2z"/>
	<path fill="#FE806A" d="M12.6,37.3l-1-1c-0.3-0.3-0.9-0.3-1.2,0c-0.2,0.2-0.2,0.4-0.2,0.6c0,0.2,0.1,0.4,0.2,0.6l1,1
		c0.3,0.3,0.8,0.5,1.2,0.5c0.5,0,0.9-0.2,1.2-0.5l2.7-2.7c0.2-0.2,0.2-0.4,0.2-0.6c0-0.2-0.1-0.4-0.2-0.6c-0.3-0.3-0.9-0.3-1.2,0
		L12.6,37.3l0.1,0.1c0,0,0,0,0,0L12.6,37.3z"/>
	<path fill="#212122" d="M11.9,13.9H9.5c-0.9,0-1.7,0.8-1.7,1.7v5.3c0,0.9,0.8,1.7,1.7,1.7h5.3c0.9,0,1.7-0.8,1.7-1.7V19
		c0-0.5-0.4-0.8-0.8-0.8s-0.8,0.4-0.8,0.8v1.8c0,0,0,0,0,0H9.5c0,0,0,0,0,0v-5.3c0,0,0,0,0,0h2.4c0.5,0,0.8-0.4,0.8-0.8
		S12.4,13.9,11.9,13.9z"/>
	<path fill="#212122" d="M19,28.4h6c0.5,0,0.8-0.4,0.8-0.8s-0.4-0.8-0.8-0.8h-6c-0.5,0-0.8,0.4-0.8,0.8S18.5,28.4,19,28.4z"/>
	<path fill="#212122" d="M19,35.4h10.4c0.5,0,0.8-0.4,0.8-0.8s-0.4-0.8-0.8-0.8H19c-0.5,0-0.8,0.4-0.8,0.8S18.5,35.4,19,35.4z"/>
	<path fill="#212122" d="M19,38.3h6c0.5,0,0.8-0.4,0.8-0.8s-0.4-0.8-0.8-0.8h-6c-0.5,0-0.8,0.4-0.8,0.8S18.5,38.3,19,38.3z"/>
	<path fill="#212122" d="M19,25.5h10.4c0.5,0,0.8-0.4,0.8-0.8s-0.4-0.8-0.8-0.8H19c-0.5,0-0.8,0.4-0.8,0.8S18.5,25.5,19,25.5z"/>
	<path fill="#212122" d="M19,15.5h10.4c0.5,0,0.8-0.4,0.8-0.8s-0.4-0.8-0.8-0.8H19c-0.5,0-0.8,0.4-0.8,0.8S18.5,15.5,19,15.5z"/>
	<path fill="#212122" d="M7.8,40.7c0,0.9,0.8,1.7,1.7,1.7h5.3c0.9,0,1.7-0.8,1.7-1.7v-1.8c0-0.5-0.4-0.8-0.8-0.8s-0.8,0.4-0.8,0.8v1.8
		c0,0,0,0,0,0H9.5c0,0,0,0,0,0v-5.3c0,0,0,0,0,0h2.4c0.5,0,0.8-0.4,0.8-0.8s-0.4-0.8-0.8-0.8H9.5c-0.9,0-1.7,0.8-1.7,1.7V40.7z"/>
	<path fill="#212122" d="M19,18.5h10.4c0.5,0,0.8-0.4,0.8-0.8s-0.4-0.8-0.8-0.8H19c-0.5,0-0.8,0.4-0.8,0.8S18.5,18.5,19,18.5z"/>
	<path fill="#212122" d="M7.8,30.8c0,0.9,0.8,1.7,1.7,1.7h5.3c0.9,0,1.7-0.8,1.7-1.7v-1.8c0-0.5-0.4-0.8-0.8-0.8s-0.8,0.4-0.8,0.8v1.8
		c0,0,0,0,0,0H9.5c0,0,0,0,0,0v-5.3c0,0,0,0,0,0h2.4c0.5,0,0.8-0.4,0.8-0.8s-0.4-0.8-0.8-0.8H9.5c-0.9,0-1.7,0.8-1.7,1.7V30.8z"/>
</g>
</svg>
