<?xml version="1.0" encoding="utf-8"?>
<!-- Generator: Adobe Illustrator 22.1.0, SVG Export Plug-In . SVG Version: 6.00 Build 0)  -->
<svg version="1.1" xmlns="http://www.w3.org/2000/svg" xmlns:xlink="http://www.w3.org/1999/xlink" x="0px" y="0px"
	 viewBox="0 0 49.9 50" style="enable-background:new 0 0 49.9 50;" xml:space="preserve">

<g>
	<g>
		<path fill="#212122" d="M34.4,25h-6.1c-0.3-1.2-1.3-2.1-2.4-2.4V14c0-0.5-0.4-0.9-0.9-0.9s-0.9,0.4-0.9,0.9v8.6
			c-1.5,0.4-2.6,1.8-2.6,3.4c0,1.9,1.6,3.5,3.5,3.5c1.6,0,2.9-1.1,3.4-2.6h6.1c0.5,0,0.9-0.4,0.9-0.9S34.9,25,34.4,25z M26.6,25.9
			c0,0.9-0.7,1.6-1.6,1.6s-1.6-0.7-1.6-1.6s0.7-1.6,1.6-1.6S26.6,25,26.6,25.9z"/>
		<path fill="#212122" d="M43,8.5l3.5,3.5c0.2,0.2,0.4,0.3,0.7,0.3c0.2,0,0.5-0.1,0.7-0.3c1.3-1.3,2.1-3.1,2.1-5s-0.7-3.6-2.1-5
			c-1.3-1.3-3.1-2.1-5-2.1s-3.6,0.7-5,2.1c-0.2,0.2-0.3,0.4-0.3,0.7s0.1,0.5,0.3,0.7l3.9,3.9l-1.4,1.4C36.1,4.9,30.7,2.8,25,2.8
			S13.8,4.9,9.6,8.7L8.2,7.2L12,3.4c0.2-0.2,0.3-0.4,0.3-0.7c0-0.2-0.1-0.5-0.3-0.7C9.3-0.7,4.8-0.7,2,2C0.7,3.4,0,5.2,0,7
			s0.7,3.6,2.1,5c0.2,0.2,0.4,0.3,0.7,0.3c0.2,0,0.5-0.1,0.7-0.3L7,8.5l1.3,1.3c-4.2,4.3-6.5,10-6.5,16c0,8.1,4.4,15.8,11.4,20
			l-2.5,2.5c-0.4,0.4-0.4,1,0,1.3c0.2,0.2,0.4,0.3,0.7,0.3c0.2,0,0.5-0.1,0.7-0.3l2.9-2.9c3.2,1.6,6.6,2.3,10.1,2.3s7-0.8,10.1-2.3
			l2.9,2.9c0.2,0.2,0.4,0.3,0.7,0.3c0.2,0,0.5-0.1,0.7-0.3c0.4-0.4,0.4-1,0-1.3L37,45.8c7-4.2,11.4-11.8,11.4-20
			c0-6-2.3-11.7-6.5-16L43,8.5z M10,2.8L2.8,10C1.4,7.9,1.6,5.2,3.4,3.4c1-1,2.3-1.5,3.7-1.5C8.1,1.9,9.1,2.2,10,2.8z M39.9,2.8
			c2.1-1.4,4.8-1.2,6.6,0.6s2,4.5,0.6,6.6L39.9,2.8z M46.3,25.9c0,11.8-9.6,21.4-21.4,21.4S3.5,37.7,3.5,25.9S13.1,4.5,24.9,4.5
			C36.7,4.6,46.3,14.1,46.3,25.9z"/>
		<path fill="#212122" d="M24.9,6C24.4,6,24,6.4,24,7v0.9c0,0.5,0.4,0.9,0.9,0.9s0.9-0.4,0.9-0.9V7C25.9,6.4,25.4,6,24.9,6z"/>
		<path fill="#212122" d="M24.9,42.9c-0.5,0-0.9,0.4-0.9,0.9v0.9c0,0.5,0.4,0.9,0.9,0.9s0.9-0.4,0.9-0.9v-0.9
			C25.9,43.3,25.4,42.9,24.9,42.9z"/>
		<path fill="#212122" d="M43.8,24.9h-0.9c-0.5,0-0.9,0.4-0.9,0.9s0.4,0.9,0.9,0.9h0.9c0.5,0,0.9-0.4,0.9-0.9S44.3,24.9,43.8,24.9z"/>
		<path fill="#212122" d="M6.9,24.9H6.1c-0.5,0-0.9,0.4-0.9,0.9s0.4,0.9,0.9,0.9H7c0.5,0,0.9-0.4,0.9-0.9S7.4,24.9,6.9,24.9z"/>
		<path fill="#212122" d="M38.9,11.8c-0.2-0.2-0.4-0.3-0.7-0.3l0,0c-0.2,0-0.5,0.1-0.7,0.3L37,12.4c-0.4,0.4-0.4,1,0,1.3
			c0.2,0.2,0.4,0.3,0.7,0.3c0.2,0,0.5-0.1,0.7-0.3l0.6-0.6C39.3,12.8,39.3,12.2,38.9,11.8z"/>
		<path fill="#212122" d="M12.9,37.9c-0.4-0.4-1-0.4-1.3,0L11,38.5c-0.4,0.4-0.4,1,0,1.3c0.2,0.2,0.4,0.3,0.7,0.3
			c0.2,0,0.5-0.1,0.7-0.3l0.6-0.6C13.2,38.8,13.2,38.3,12.9,37.9z"/>
		<path fill="#212122" d="M38.9,38.5l-0.6-0.6c-0.4-0.4-1-0.4-1.3,0c-0.4,0.4-0.4,1,0,1.3l0.6,0.6c0.2,0.2,0.4,0.3,0.7,0.3
			c0.2,0,0.5-0.1,0.7-0.3C39.3,39.4,39.3,38.9,38.9,38.5z"/>
		<path fill="#212122" d="M12.9,12.4l-0.6-0.6c-0.4-0.4-1-0.4-1.3,0c-0.4,0.4-0.4,1,0,1.3l0.6,0.6c0.2,0.2,0.4,0.3,0.7,0.3
			s0.5-0.1,0.7-0.3C13.2,13.4,13.2,12.8,12.9,12.4z"/>
	</g>
</g>

</svg>
