<?xml version="1.0" encoding="utf-8"?>
<!-- Generator: Adobe Illustrator 22.1.0, SVG Export Plug-In . SVG Version: 6.00 Build 0)  -->
<svg version="1.1" id="resize" xmlns="http://www.w3.org/2000/svg" xmlns:xlink="http://www.w3.org/1999/xlink" x="0px" y="0px"
	 viewBox="0 0 100 100" style="enable-background:new 0 0 100 100;" xml:space="preserve">

<g>
	<g>
		<g>
			<g>
				<path fill="#212122" d="M35.2,92.2H7.8V64.8c0-2.2-1.7-3.9-3.9-3.9S0,62.7,0,64.8v31.3c0,2.2,1.7,3.9,3.9,3.9h31.3
					c2.2,0,3.9-1.7,3.9-3.9S37.3,92.2,35.2,92.2z"/>
				<path fill="#212122" d="M35.2,0H3.9C1.7,0,0,1.7,0,3.9v31.3c0,2.2,1.7,3.9,3.9,3.9s3.9-1.7,3.9-3.9V7.8h27.3c2.2,0,3.9-1.7,3.9-3.9
					S37.3,0,35.2,0z"/>
				<path fill="#212122" d="M96.1,60.9c-2.2,0-3.9,1.7-3.9,3.9v27.3H64.8c-2.2,0-3.9,1.7-3.9,3.9s1.7,3.9,3.9,3.9h31.3
					c2.2,0,3.9-1.7,3.9-3.9V64.8C100,62.7,98.3,60.9,96.1,60.9z"/>
				<path fill="#212122" d="M96.1,0H64.8c-2.2,0-3.9,1.7-3.9,3.9s1.7,3.9,3.9,3.9h27.3v27.3c0,2.2,1.7,3.9,3.9,3.9s3.9-1.7,3.9-3.9V3.9
					C100,1.7,98.3,0,96.1,0z"/>
			</g>
		</g>
	</g>
</g>
</svg>
