<?xml version="1.0" encoding="utf-8"?>
<!-- Generator: Adobe Illustrator 22.1.0, SVG Export Plug-In . SVG Version: 6.00 Build 0)  -->
<svg version="1.1" id="Capa_1" xmlns="http://www.w3.org/2000/svg" xmlns:xlink="http://www.w3.org/1999/xlink" x="0px" y="0px"
	 viewBox="0 0 22 22" style="enable-background:new 0 0 22 22;" xml:space="preserve">

<path fill="#FFFFFF" d="M18,22H4c-2.2,0-4-1.8-4-4V4c0-2.2,1.8-4,4-4h14c2.2,0,4,1.8,4,4v14C22,20.2,20.2,22,18,22z"/>
<g>
	<g>
		<path fill="#959595" d="M15.5,5.9c-1.2-1.2-3.1-1.2-4.2,0l-4.5,4.5c-0.1,0.1-0.1,0.4,0,0.5c0.1,0.1,0.4,0.1,0.5,0l4.5-4.5
			c0.9-0.9,2.4-0.9,3.2,0c0.9,0.9,0.9,2.3,0,3.2l-6.2,6.3c-0.5,0.5-1.5,0.5-2,0c-0.5-0.5-0.5-1.4,0-2l6-6c0.2-0.2,0.5-0.2,0.7,0
			c0.2,0.2,0.2,0.5,0,0.7l-5.7,5.8c-0.1,0.1-0.1,0.4,0,0.5c0.1,0.1,0.4,0.1,0.5,0L14,9.1c0.5-0.5,0.5-1.3,0-1.7
			c-0.5-0.5-1.3-0.5-1.7,0l-6,6c-0.8,0.8-0.8,2.2,0,3C6.7,16.8,7.2,17,7.8,17s1.1-0.2,1.5-0.6l6.2-6.3C16.6,8.9,16.6,7,15.5,5.9z"/>
	</g>
</g>
</svg>
